{
    "baskets": [],
    "data_dir": "../data/germeval18",
    "delimiter": "\t",
    "dev_filename": null,
    "dev_split": 0.1,
    "header": 0,
    "max_samples": null,
    "max_seq_len": 256,
    "proxies": null,
    "quote_char": "'",
    "skiprows": null,
    "tasks": {
        "text_classification": {
            "label_list": [
                "OTHER",
                "OFFENSE"
            ],
            "metric": "f1_macro",
            "label_tensor_name": "text_classification_label_ids",
            "label_name": "text_classification_label",
            "label_column_name": "coarse_label",
            "task_type": "classification"
        }
    },
    "test_filename": "test.tsv",
    "train_filename": "train.tsv",
    "tokenizer": "DistilBertTokenizer",
    "processor": "TextClassificationProcessor"
}