{
    "ChurnValue": {
        "preprocessing": {
            "fill_value": 0,
            "missing_value_strategy": "fill_with_const"
        }
    },
    "City": {
        "idx2str": [
            "<UNK>",
            "Los Angeles",
            "San Diego",
            "San Jose",
            "Sacramento",
            "San Francisco",
            "Fresno",
            "Long Beach",
            "Oakland",
            "Stockton",
            "Glendale",
            "Bakersfield",
            "Riverside",
            "Berkeley",
            "Whittier",
            "Pasadena",
            "San Bernardino",
            "Irvine",
            "Anaheim",
            "Santa Barbara",
            "Modesto",
            "Inglewood",
            "Santa Monica",
            "Torrance",
            "Burbank",
            "Chula Vista",
            "Santa Ana",
            "Santa Rosa",
            "Van Nuys",
            "North Hollywood",
            "Escondido",
            "Garden Grove",
            "Salinas",
            "Orange",
            "Corona",
            "Rancho Cucamonga",
            "Moreno Valley",
            "Huntington Beach",
            "Newport Beach",
            "Palmdale",
            "Palo Alto",
            "San Mateo",
            "Concord",
            "Fremont",
            "Hayward",
            "Santa Cruz",
            "Vallejo",
            "Fullerton",
            "Redwood City",
            "Beverly Hills",
            "Lakewood",
            "Covina",
            "Ontario",
            "Pomona",
            "West Covina",
            "El Cajon",
            "Oceanside",
            "Compton",
            "Gardena",
            "Downey",
            "Hemet",
            "Sun City",
            "Ventura",
            "Visalia",
            "Lancaster",
            "Mountain View",
            "Sunnyvale",
            "San Leandro",
            "Walnut Creek",
            "Novato",
            "Los Gatos",
            "Fontana",
            "Oxnard",
            "Richmond",
            "Santa Clara",
            "Roseville",
            "Chico",
            "Temecula",
            "Redding",
            "Santa Maria",
            "San Pedro",
            "Carson",
            "Canoga Park",
            "El Monte",
            "La Puente",
            "Alhambra",
            "Carlsbad",
            "Indio",
            "Palm Desert",
            "Desert Hot Springs",
            "Apple Valley",
            "Culver City",
            "Malibu",
            "Redondo Beach",
            "Buena Park",
            "Northridge",
            "Sherman Oaks",
            "Monterey Park",
            "San Marcos",
            "Vista",
            "Twentynine Palms",
            "Arcadia",
            "Encino",
            "Valencia",
            "Glendora",
            "La Mesa",
            "Spring Valley",
            "Palm Springs",
            "Woodland Hills",
            "San Gabriel",
            "Rancho Santa Fe",
            "Thousand Oaks",
            "Upland",
            "Redlands",
            "Rialto",
            "Victorville",
            "Murrieta",
            "Perris",
            "Brea",
            "Yorba Linda",
            "San Luis Obispo",
            "Lompoc",
            "Madera",
            "Daly City",
            "Los Altos",
            "Castro Valley",
            "Napa",
            "Pleasanton",
            "San Rafael",
            "Lodi",
            "Turlock",
            "Davis",
            "Elk Grove",
            "Rancho Cordova",
            "Grass Valley",
            "Oroville",
            "Yuba City",
            "Camarillo",
            "Clovis",
            "Danville",
            "Merced",
            "Eureka",
            "West Sacramento",
            "Citrus Heights",
            "Woodland",
            "Lake Elsinore",
            "Costa Mesa",
            "Tustin",
            "Frazier Park",
            "Auburn",
            "Vacaville",
            "San Jacinto",
            "Mission Viejo",
            "Simi Valley",
            "San Clemente",
            "Alameda",
            "Petaluma",
            "Manteca",
            "Rocklin",
            "Huntington Park",
            "Lynwood",
            "Marina Del Rey",
            "La Habra",
            "Pico Rivera",
            "Avalon",
            "Harbor City",
            "Los Alamitos",
            "Altadena",
            "Monrovia",
            "Sierra Madre",
            "Tujunga",
            "Mission Hills",
            "Santa Clarita",
            "Sun Valley",
            "Stevenson Ranch",
            "Panorama City",
            "Rowland Heights",
            "Rosemead",
            "San Dimas",
            "Alpine",
            "Bonita",
            "Boulevard",
            "Guatay",
            "Jacumba",
            "Mount Laguna",
            "Borrego Springs",
            "Del Mar",
            "Pala",
            "Palomar Mountain",
            "Pauma Valley",
            "Ranchita",
            "Valley Center",
            "Indian Wells",
            "Holtville",
            "Niland",
            "North Palm Springs",
            "Ocotillo",
            "Seeley",
            "Thermal",
            "Adelanto",
            "Hawthorne",
            "Hermosa Beach",
            "Pacific Palisades",
            "La Palma",
            "Stanton",
            "Bellflower",
            "Lomita",
            "Seal Beach",
            "South Pasadena",
            "Sunland",
            "Agoura Hills",
            "Newhall",
            "Porter Ranch",
            "Pacoima",
            "Reseda",
            "Sylmar",
            "Granada Hills",
            "Canyon Country",
            "Westlake Village",
            "Chino",
            "Claremont",
            "Walnut",
            "Dulzura",
            "Jamul",
            "Bonsall",
            "Cardiff By The Sea",
            "Encinitas",
            "La Jolla",
            "Ramona",
            "Santee",
            "Coronado",
            "Banning",
            "Desert Center",
            "Heber",
            "La Quinta",
            "Rancho Mirage",
            "Westmorland",
            "Amboy",
            "Angelus Oaks",
            "Lawndale",
            "Montebello",
            "Santa Fe Springs",
            "Sunset Beach",
            "Chatsworth",
            "Tarzana",
            "Castaic",
            "Valley Village",
            "Mira Loma",
            "Campo",
            "Fallbrook",
            "San Ysidro",
            "Brawley",
            "Calexico",
            "Thousand Palms",
            "White Water",
            "El Segundo",
            "Topanga",
            "Venice",
            "Cerritos",
            "Duarte",
            "Montrose",
            "San Marino",
            "Azusa",
            "Hacienda Heights",
            "Imperial Beach",
            "Julian",
            "Lakeside",
            "Solana Beach",
            "Blythe",
            "Coachella",
            "Imperial",
            "Joshua Tree",
            "Parker Dam",
            "Vidal",
            "Winterhaven",
            "Landers",
            "West Hollywood",
            "Hawaiian Gardens",
            "Paramount",
            "La Canada Flintridge",
            "Winnetka",
            "San Fernando",
            "North Hills",
            "South El Monte",
            "Montclair",
            "Poway",
            "Beaumont",
            "Cabazon",
            "Calipatria",
            "El Centro",
            "Bell",
            "Manhattan Beach",
            "Maywood",
            "Palos Verdes Peninsula",
            "Rancho Palos Verdes",
            "South Gate",
            "Playa Del Rey",
            "Cypress",
            "La Mirada",
            "Norwalk",
            "Artesia",
            "Surfside",
            "Wilmington",
            "La Crescenta",
            "Calabasas",
            "West Hills",
            "Newbury Park",
            "Oak Park",
            "Studio City",
            "Baldwin Park",
            "Chino Hills",
            "La Verne",
            "Mt Baldy",
            "Diamond Bar",
            "Temple City",
            "Descanso",
            "Lemon Grove",
            "National City",
            "Pine Valley",
            "Potrero",
            "Tecate",
            "Santa Ysabel",
            "Warner Springs",
            "Cathedral City",
            "Earp",
            "Mecca",
            "Morongo Valley",
            "Palo Verde",
            "Pioneertown",
            "Salton City",
            "Yucca Valley",
            "Crestline",
            "Daggett",
            "Ludlow",
            "Lucerne Valley",
            "Lytle Creek",
            "Phelan",
            "Running Springs",
            "Tecopa",
            "Wrightwood",
            "March Air Reserve Base",
            "Homeland",
            "Idyllwild",
            "Lake Forest",
            "Norco",
            "Port Hueneme",
            "Summerland",
            "Alpaugh",
            "Armona",
            "Avenal",
            "Bodfish",
            "Camp Nelson",
            "Coalinga",
            "Delano",
            "Earlimart",
            "Exeter",
            "Fellows",
            "Huron",
            "Kernville",
            "Lemon Cove",
            "Lindsay",
            "Maricopa",
            "Onyx",
            "Posey",
            "Shafter",
            "Tipton",
            "Wofford Heights",
            "Los Alamos",
            "Oceano",
            "Pismo Beach",
            "Mojave",
            "Johannesburg",
            "Keene",
            "Pearblossom",
            "Randsburg",
            "Ridgecrest",
            "Trona",
            "Bass Lake",
            "Biola",
            "Five Points",
            "Friant",
            "Kerman",
            "Mendota",
            "Miramonte",
            "Orosi",
            "San Joaquin",
            "Selma",
            "South Dos Palos",
            "Tollhouse",
            "Squaw Valley",
            "Big Sur",
            "Carmel",
            "Jolon",
            "King City",
            "Lockwood",
            "Marina",
            "Pebble Beach",
            "Belmont",
            "Loma Mar",
            "Pescadero",
            "San Bruno",
            "South San Francisco",
            "Antioch",
            "Birds Landing",
            "Byron",
            "Livermore",
            "Martinez",
            "Pinole",
            "San Lorenzo",
            "San Ramon",
            "Union City",
            "Albany",
            "Greenbrae",
            "Bodega Bay",
            "Cotati",
            "Forest Knolls",
            "Larkspur",
            "Marshall",
            "Nicasio",
            "San Anselmo",
            "Sausalito",
            "Tomales",
            "Valley Ford",
            "Alviso",
            "Boulder Creek",
            "Davenport",
            "Freedom",
            "Gilroy",
            "San Martin",
            "Acampo",
            "Glencoe",
            "Linden",
            "Valley Springs",
            "West Point",
            "Atwater",
            "Big Oak Flat",
            "Columbia",
            "Delhi",
            "Hickman",
            "Long Barn",
            "Mariposa",
            "Mi Wuk Village",
            "Oakdale",
            "Riverbank",
            "Salida",
            "Snelling",
            "Westley",
            "Yosemite National Park",
            "Branscomb",
            "Caspar",
            "Clearlake",
            "Cloverdale",
            "Comptche",
            "Eldridge",
            "Fulton",
            "Gualala",
            "Nice",
            "Rio Nido",
            "Ukiah",
            "Witter Springs",
            "Alderpoint",
            "Mckinleyville",
            "Bayside",
            "Blue Lake",
            "Bridgeville",
            "Crescent City",
            "Ferndale",
            "Honeydew",
            "Korbel",
            "Loleta",
            "Miranda",
            "Rio Dell",
            "Salyer",
            "Smith River",
            "Somes Bar",
            "Trinidad",
            "Whitethorn",
            "Amador City",
            "Carmichael",
            "Diamond Springs",
            "Dixon",
            "Elmira",
            "Folsom",
            "Greenwood",
            "Jackson",
            "Knights Landing",
            "Madison",
            "Orangevale",
            "Penryn",
            "Pleasant Grove",
            "Plymouth",
            "Rio Linda",
            "Sheridan",
            "Sloughhouse",
            "Wheatland",
            "Winters",
            "Colfax",
            "Meadow Vista",
            "Soda Springs",
            "Antelope",
            "Arbuckle",
            "Bangor",
            "Canyon Dam",
            "Challenge",
            "Dobbins",
            "Dunnigan",
            "Forest Ranch",
            "Magalia",
            "Nevada City",
            "Princeton",
            "Strawberry Valley",
            "Twain",
            "Anderson",
            "Big Bend",
            "Callahan",
            "Corning",
            "Cottonwood",
            "Douglas City",
            "Fall River Mills",
            "Fort Jones",
            "Hayfork",
            "Igo",
            "Klamath River",
            "Lakehead",
            "Lewiston",
            "Nubieber",
            "Palo Cedro",
            "Round Mountain",
            "Seiad Valley",
            "Shasta",
            "Vina",
            "Alturas",
            "Davis Creek",
            "Fort Bidwell",
            "Lake City",
            "Likely",
            "Portola",
            "Ravendale",
            "Topaz",
            "Homewood",
            "Tahoma",
            "Tahoe City",
            "South Lake Tahoe",
            "Truckee",
            "Baker",
            "Cedar Glen",
            "Colton",
            "Fawnskin",
            "Mentone",
            "Sugarloaf",
            "Anza",
            "Nuevo",
            "Foothill Ranch",
            "Corona Del Mar",
            "Dana Point",
            "Midway City",
            "Newport Coast",
            "Trabuco Canyon",
            "Moorpark",
            "Oak View",
            "Piru",
            "Santa Paula",
            "Buttonwillow",
            "Mc Kittrick",
            "Taft",
            "Terra Bella",
            "Los Osos",
            "Bradley",
            "Buellton",
            "Morro Bay",
            "Nipomo",
            "Templeton",
            "Benton",
            "Independence",
            "Inyokern",
            "Lee Vining",
            "Rosamond",
            "Tehachapi",
            "Cantua Creek",
            "Cutler",
            "Dinuba",
            "Dunlap",
            "Fowler",
            "Hume",
            "North Fork",
            "Oakhurst",
            "Prather",
            "Tranquillity",
            "Traver",
            "Carmel Valley",
            "San Lucas",
            "Brisbane",
            "Burlingame",
            "Atherton",
            "Pleasant Hill",
            "Crockett",
            "Fairfield",
            "Travis Afb",
            "Moraga",
            "Orinda",
            "Pope Valley",
            "Dublin",
            "Rodeo",
            "Saint Helena",
            "Deer Park",
            "Sunol",
            "Emeryville",
            "El Sobrante",
            "Inverness",
            "Mill Valley",
            "Stinson Beach",
            "Aromas",
            "Moss Landing",
            "San Juan Bautista",
            "Angels Camp",
            "Avery",
            "Hathaway Pines",
            "Mountain Ranch",
            "Sheep Ranch",
            "Vallecito",
            "Ballico",
            "Catheys Valley",
            "Newman",
            "Patterson",
            "Planada",
            "Soulsbyville",
            "Waterford",
            "Clearlake Oaks",
            "Covelo",
            "Guerneville",
            "Healdsburg",
            "Jenner",
            "Philo",
            "Point Arena",
            "Westport",
            "The Sea Ranch",
            "Gasquet",
            "Hydesville",
            "Klamath",
            "Piercy",
            "Brooks",
            "El Dorado",
            "Elverta",
            "Garden Valley",
            "Grizzly Flats",
            "Guinda",
            "Herald",
            "Isleton",
            "Lotus",
            "Mather",
            "Newcastle",
            "Nicolaus",
            "Pilot Hill",
            "Pine Grove",
            "Rio Oso",
            "Thornton",
            "Applegate",
            "Camino",
            "Dutch Flat",
            "Echo Lake",
            "Pollock Pines",
            "Weimar",
            "Granite Bay",
            "Beale Afb",
            "Butte City",
            "Camptonville",
            "Clipper Mills",
            "Colusa",
            "Downieville",
            "Grimes",
            "Palermo",
            "Quincy",
            "Rough And Ready",
            "Sutter",
            "Willows",
            "Adin",
            "Bieber",
            "Burney",
            "Dorris",
            "Mineral",
            "Montague",
            "Oak Run",
            "Old Station",
            "Paskenta",
            "Red Bluff",
            "Weaverville",
            "Whitmore",
            "Blairsden Graeagle",
            "Doyle",
            "Eagleville",
            "Sierra City",
            "Sierraville",
            "Westwood",
            "Tahoe Vista",
            "Big Bear City",
            "Bloomington",
            "Calimesa",
            "Green Valley Lake",
            "Hinkley",
            "Newberry Springs",
            "Oro Grande",
            "Silverado",
            "Rancho Santa Margarita",
            "Ladera Ranch",
            "Placentia",
            "Carpinteria",
            "Ojai",
            "Somis",
            "Ducor",
            "Lemoore",
            "Porterville",
            "Sequoia National Park",
            "Strathmore",
            "Wasco",
            "Woody",
            "Casmalia",
            "Guadalupe",
            "Boron",
            "Edwards",
            "Lake Hughes",
            "Valyermo",
            "Ahwahnee",
            "Big Creek",
            "Helm",
            "Kingsburg",
            "Parlier",
            "Sanger",
            "Shaver Lake",
            "Pacific Grove",
            "Seaside",
            "Half Moon Bay",
            "Millbrae",
            "Calistoga",
            "Lafayette",
            "Pittsburg",
            "Port Costa",
            "Rio Vista",
            "San Pablo",
            "Bolinas",
            "Corte Madera",
            "Point Reyes Station",
            "Capitola",
            "Cupertino",
            "Milpitas",
            "Morgan Hill",
            "Arnold",
            "Campo Seco",
            "Clements",
            "French Camp",
            "Lockeford",
            "Murphys",
            "Wallace",
            "Crows Landing",
            "Gustine",
            "Hughson",
            "La Grange",
            "Lathrop",
            "Pinecrest",
            "Stevinson",
            "Vernalis",
            "Winton",
            "Cobb",
            "Elk",
            "Glen Ellen",
            "Mendocino",
            "Redwood Valley",
            "Sonoma",
            "Fields Landing",
            "Hoopa",
            "Myers Flat",
            "Samoa",
            "Zenia",
            "Clarksburg",
            "Fair Oaks",
            "Galt",
            "Hood",
            "Loomis",
            "Pioneer",
            "Walnut Grove",
            "Emigrant Gap",
            "Browns Valley",
            "Crescent Mills",
            "Elk Creek",
            "Hamilton City",
            "Live Oak",
            "Maxwell",
            "Meadow Valley",
            "Olivehurst",
            "Williams",
            "Bella Vista",
            "Castella",
            "Happy Camp",
            "Hat Creek",
            "Paynes Creek",
            "Shingletown",
            "Trinity Center",
            "Susanville",
            "Termo",
            "Carnelian Bay",
            "Kings Beach",
            "Barstow",
            "Highland",
            "Shoshone",
            "Yermo",
            "Yucaipa",
            "Aguanga",
            "Capistrano Beach",
            "Laguna Beach",
            "California Hot Springs",
            "Corcoran",
            "Farmersville",
            "Ivanhoe",
            "Lebec",
            "New Cuyama",
            "Richgrove",
            "Stratford",
            "Tulare",
            "Solvang",
            "Big Pine",
            "Caliente",
            "Lone Pine",
            "Olancha",
            "Badger",
            "Riverdale",
            "Carmel By The Sea",
            "Chualar",
            "Greenfield",
            "Portola Valley",
            "Angwin",
            "Clayton",
            "Oakley",
            "Rohnert Park",
            "Olema",
            "Woodacre",
            "Aptos",
            "Ben Lomond",
            "Campbell",
            "Felton",
            "Hollister",
            "Watsonville",
            "Woodbridge",
            "Denair",
            "Groveland",
            "Jamestown",
            "Livingston",
            "Tuolumne",
            "Annapolis",
            "Graton",
            "Hopland",
            "Lakeport",
            "Laytonville",
            "Lucerne",
            "Navarro",
            "Yorkville",
            "Burnt Ranch",
            "Garberville",
            "Petrolia",
            "Redway",
            "Cool",
            "Kirkwood",
            "Rescue",
            "Sutter Creek",
            "Wilton",
            "Kyburz",
            "Brownsville",
            "Forbestown",
            "Gridley",
            "Orland",
            "Taylorsville",
            "Canby",
            "Cassel",
            "Shasta Lake",
            "Dunsmuir",
            "Etna",
            "Flournoy",
            "Greenview",
            "Hornbrook",
            "Los Molinos",
            "Mcarthur",
            "Mill Creek",
            "Platina",
            "Wendel",
            "Fort Irwin",
            "Grand Terrace",
            "Big Bear Lake",
            "Death Valley",
            "Essex",
            "Forest Falls",
            "Helendale",
            "Hesperia",
            "Lake Arrowhead",
            "Loma Linda",
            "Needles",
            "Nipton",
            "Pinon Hills",
            "Mountain Center",
            "Menifee",
            "Wildomar",
            "Winchester",
            "Laguna Hills",
            "Aliso Viejo",
            "San Juan Capistrano",
            "Laguna Niguel",
            "Westminster",
            "Fountain Valley",
            "Villa Park",
            "Fillmore",
            "Goleta",
            "Arvin",
            "Glennville",
            "Hanford",
            "Kettleman City",
            "Lake Isabella",
            "Lamont",
            "Laton",
            "Lost Hills",
            "Mc Farland",
            "Pixley",
            "Springville",
            "Three Rivers",
            "Tupman",
            "Weldon",
            "Woodlake",
            "Arroyo Grande",
            "Atascadero",
            "Avila Beach",
            "Cambria",
            "Cayucos",
            "Creston",
            "Grover Beach",
            "Los Olivos",
            "Paso Robles",
            "San Ardo",
            "San Miguel",
            "San Simeon",
            "Santa Margarita",
            "Santa Ynez",
            "Shandon",
            "California City",
            "Acton",
            "Bishop",
            "Bridgeport",
            "Darwin",
            "June Lake",
            "Keeler",
            "Littlerock",
            "Llano",
            "Mammoth Lakes",
            "Auberry",
            "Caruthers",
            "Chowchilla",
            "Coarsegold",
            "Del Rey",
            "Dos Palos",
            "Firebaugh",
            "Fish Camp",
            "Lakeshore",
            "Los Banos",
            "O Neals",
            "Orange Cove",
            "Raisin City",
            "Raymond",
            "Reedley",
            "Sultana",
            "Wishon",
            "Gonzales",
            "Monterey",
            "Soledad",
            "Spreckels",
            "La Honda",
            "Menlo Park",
            "Montara",
            "Moss Beach",
            "Pacifica",
            "San Carlos",
            "San Gregorio",
            "Stanford",
            "Alamo",
            "Benicia",
            "Bethel Island",
            "Brentwood",
            "El Cerrito",
            "Hercules",
            "Newark",
            "Suisun City",
            "Yountville",
            "Belvedere Tiburon",
            "Bodega",
            "Dillon Beach",
            "Fairfax",
            "Lagunitas",
            "Penngrove",
            "San Geronimo",
            "San Quentin",
            "Brookdale",
            "Castroville",
            "Mount Hermon",
            "Paicines",
            "Scotts Valley",
            "Saratoga",
            "Soquel",
            "Mount Hamilton",
            "Burson",
            "Copperopolis",
            "Farmington",
            "Mokelumne Hill",
            "San Andreas",
            "Wilseyville",
            "Ceres",
            "Coulterville",
            "Cressey",
            "El Nido",
            "El Portal",
            "Escalon",
            "Hilmar",
            "Hornitos",
            "Keyes",
            "Le Grand",
            "Midpines",
            "Ripon",
            "Sonora",
            "Tracy",
            "Twain Harte",
            "Albion",
            "Boonville",
            "Cazadero",
            "Dos Rios",
            "Duncans Mills",
            "Forestville",
            "Fort Bragg",
            "Geyserville",
            "Glenhaven",
            "Kelseyville",
            "Kenwood",
            "Little River",
            "Lower Lake",
            "Manchester",
            "Middletown",
            "Monte Rio",
            "Occidental",
            "Potter Valley",
            "Sebastopol",
            "Upper Lake",
            "Willits",
            "Windsor",
            "Blocksburg",
            "Arcata",
            "Carlotta",
            "Fortuna",
            "Kneeland",
            "Mad River",
            "Orick",
            "Orleans",
            "Phillipsville",
            "Scotia",
            "Redcrest",
            "Weott",
            "Willow Creek",
            "Leggett",
            "Capay",
            "Courtland",
            "Esparto",
            "Fiddletown",
            "Foresthill",
            "Georgetown",
            "Ione",
            "Lincoln",
            "North Highlands",
            "Placerville",
            "River Pines",
            "Shingle Springs",
            "Somerset",
            "Volcano",
            "Alta",
            "Gold Run",
            "Twin Bridges",
            "El Dorado Hills",
            "Marysville",
            "Alleghany",
            "Berry Creek",
            "Biggs",
            "Durham",
            "Glenn",
            "Goodyears Bar",
            "Penn Valley",
            "Greenville",
            "Meridian",
            "North San Juan",
            "Oregon House",
            "Paradise",
            "Richvale",
            "Smartville",
            "Stirling City",
            "Stonyford",
            "Washington",
            "Big Bar",
            "Chester",
            "Forks Of Salmon",
            "French Gulch",
            "Gazelle",
            "Gerber",
            "Grenada",
            "Hyampom",
            "Junction City",
            "Lookout",
            "Mccloud",
            "Macdoel",
            "Manton",
            "Millville",
            "Montgomery Creek",
            "Mount Shasta",
            "Scott Bar",
            "Tehama",
            "Weed",
            "Yreka",
            "Cedarville",
            "Chilcoot",
            "Clio",
            "Coleville",
            "Herlong",
            "Janesville",
            "Litchfield",
            "Loyalton",
            "Madeline",
            "Markleeville",
            "Milford",
            "Calpine",
            "Standish",
            "Tulelake",
            "Olympic Valley"
        ],
        "preprocessing": {
            "fill_value": "<UNK>",
            "lowercase": false,
            "missing_value_strategy": "fill_with_const",
            "most_common": 10000
        },
        "str2freq": {
            "<UNK>": 0,
            "Acampo": 4,
            "Acton": 4,
            "Adelanto": 5,
            "Adin": 4,
            "Agoura Hills": 5,
            "Aguanga": 4,
            "Ahwahnee": 4,
            "Alameda": 8,
            "Alamo": 4,
            "Albany": 4,
            "Albion": 4,
            "Alderpoint": 4,
            "Alhambra": 10,
            "Aliso Viejo": 4,
            "Alleghany": 4,
            "Alpaugh": 4,
            "Alpine": 5,
            "Alta": 4,
            "Altadena": 5,
            "Alturas": 4,
            "Alviso": 4,
            "Amador City": 4,
            "Amboy": 5,
            "Anaheim": 28,
            "Anderson": 4,
            "Angels Camp": 4,
            "Angelus Oaks": 5,
            "Angwin": 4,
            "Annapolis": 4,
            "Antelope": 4,
            "Antioch": 4,
            "Anza": 4,
            "Apple Valley": 10,
            "Applegate": 4,
            "Aptos": 4,
            "Arbuckle": 4,
            "Arcadia": 10,
            "Arcata": 4,
            "Armona": 4,
            "Arnold": 4,
            "Aromas": 4,
            "Arroyo Grande": 4,
            "Artesia": 5,
            "Arvin": 4,
            "Atascadero": 4,
            "Atherton": 4,
            "Atwater": 4,
            "Auberry": 4,
            "Auburn": 8,
            "Avalon": 5,
            "Avenal": 4,
            "Avery": 4,
            "Avila Beach": 4,
            "Azusa": 5,
            "Badger": 4,
            "Baker": 4,
            "Bakersfield": 40,
            "Baldwin Park": 5,
            "Ballico": 4,
            "Bangor": 4,
            "Banning": 5,
            "Barstow": 4,
            "Bass Lake": 4,
            "Bayside": 4,
            "Beale Afb": 4,
            "Beaumont": 5,
            "Bell": 5,
            "Bella Vista": 4,
            "Bellflower": 5,
            "Belmont": 4,
            "Belvedere Tiburon": 4,
            "Ben Lomond": 4,
            "Benicia": 4,
            "Benton": 4,
            "Berkeley": 32,
            "Berry Creek": 4,
            "Bethel Island": 4,
            "Beverly Hills": 15,
            "Bieber": 4,
            "Big Bar": 4,
            "Big Bear City": 4,
            "Big Bear Lake": 4,
            "Big Bend": 4,
            "Big Creek": 4,
            "Big Oak Flat": 4,
            "Big Pine": 4,
            "Big Sur": 4,
            "Biggs": 4,
            "Biola": 4,
            "Birds Landing": 4,
            "Bishop": 4,
            "Blairsden Graeagle": 4,
            "Blocksburg": 4,
            "Bloomington": 4,
            "Blue Lake": 4,
            "Blythe": 5,
            "Bodega": 4,
            "Bodega Bay": 4,
            "Bodfish": 4,
            "Bolinas": 4,
            "Bonita": 5,
            "Bonsall": 5,
            "Boonville": 4,
            "Boron": 4,
            "Borrego Springs": 5,
            "Boulder Creek": 4,
            "Boulevard": 5,
            "Bradley": 4,
            "Branscomb": 4,
            "Brawley": 5,
            "Brea": 8,
            "Brentwood": 4,
            "Bridgeport": 4,
            "Bridgeville": 4,
            "Brisbane": 4,
            "Brookdale": 4,
            "Brooks": 4,
            "Browns Valley": 4,
            "Brownsville": 4,
            "Buellton": 4,
            "Buena Park": 10,
            "Burbank": 25,
            "Burlingame": 4,
            "Burney": 4,
            "Burnt Ranch": 4,
            "Burson": 4,
            "Butte City": 4,
            "Buttonwillow": 4,
            "Byron": 4,
            "Cabazon": 5,
            "Calabasas": 5,
            "Calexico": 5,
            "Caliente": 4,
            "California City": 4,
            "California Hot Springs": 4,
            "Calimesa": 4,
            "Calipatria": 5,
            "Calistoga": 4,
            "Callahan": 4,
            "Calpine": 4,
            "Camarillo": 8,
            "Cambria": 4,
            "Camino": 4,
            "Camp Nelson": 4,
            "Campbell": 4,
            "Campo": 5,
            "Campo Seco": 4,
            "Camptonville": 4,
            "Canby": 4,
            "Canoga Park": 10,
            "Cantua Creek": 4,
            "Canyon Country": 5,
            "Canyon Dam": 4,
            "Capay": 4,
            "Capistrano Beach": 4,
            "Capitola": 4,
            "Cardiff By The Sea": 5,
            "Carlotta": 4,
            "Carlsbad": 10,
            "Carmel": 4,
            "Carmel By The Sea": 4,
            "Carmel Valley": 4,
            "Carmichael": 4,
            "Carnelian Bay": 4,
            "Carpinteria": 4,
            "Carson": 10,
            "Caruthers": 4,
            "Casmalia": 4,
            "Caspar": 4,
            "Cassel": 4,
            "Castaic": 5,
            "Castella": 4,
            "Castro Valley": 8,
            "Castroville": 4,
            "Cathedral City": 5,
            "Catheys Valley": 4,
            "Cayucos": 4,
            "Cazadero": 4,
            "Cedar Glen": 4,
            "Cedarville": 4,
            "Ceres": 4,
            "Cerritos": 5,
            "Challenge": 4,
            "Chatsworth": 5,
            "Chester": 4,
            "Chico": 12,
            "Chilcoot": 4,
            "Chino": 5,
            "Chino Hills": 5,
            "Chowchilla": 4,
            "Chualar": 4,
            "Chula Vista": 25,
            "Citrus Heights": 8,
            "Claremont": 5,
            "Clarksburg": 4,
            "Clayton": 4,
            "Clearlake": 4,
            "Clearlake Oaks": 4,
            "Clements": 4,
            "Clio": 4,
            "Clipper Mills": 4,
            "Cloverdale": 4,
            "Clovis": 8,
            "Coachella": 5,
            "Coalinga": 4,
            "Coarsegold": 4,
            "Cobb": 4,
            "Coleville": 4,
            "Colfax": 4,
            "Colton": 4,
            "Columbia": 4,
            "Colusa": 4,
            "Comptche": 4,
            "Compton": 15,
            "Concord": 16,
            "Cool": 4,
            "Copperopolis": 4,
            "Corcoran": 4,
            "Corning": 4,
            "Corona": 20,
            "Corona Del Mar": 4,
            "Coronado": 5,
            "Corte Madera": 4,
            "Costa Mesa": 8,
            "Cotati": 4,
            "Cottonwood": 4,
            "Coulterville": 4,
            "Courtland": 4,
            "Covelo": 4,
            "Covina": 15,
            "Crescent City": 4,
            "Crescent Mills": 4,
            "Cressey": 4,
            "Crestline": 4,
            "Creston": 4,
            "Crockett": 4,
            "Crows Landing": 4,
            "Culver City": 10,
            "Cupertino": 4,
            "Cutler": 4,
            "Cypress": 5,
            "Daggett": 4,
            "Daly City": 8,
            "Dana Point": 4,
            "Danville": 8,
            "Darwin": 4,
            "Davenport": 4,
            "Davis": 8,
            "Davis Creek": 4,
            "Death Valley": 4,
            "Deer Park": 4,
            "Del Mar": 5,
            "Del Rey": 4,
            "Delano": 4,
            "Delhi": 4,
            "Denair": 4,
            "Descanso": 5,
            "Desert Center": 5,
            "Desert Hot Springs": 10,
            "Diamond Bar": 5,
            "Diamond Springs": 4,
            "Dillon Beach": 4,
            "Dinuba": 4,
            "Dixon": 4,
            "Dobbins": 4,
            "Dorris": 4,
            "Dos Palos": 4,
            "Dos Rios": 4,
            "Douglas City": 4,
            "Downey": 15,
            "Downieville": 4,
            "Doyle": 4,
            "Duarte": 5,
            "Dublin": 4,
            "Ducor": 4,
            "Dulzura": 5,
            "Duncans Mills": 4,
            "Dunlap": 4,
            "Dunnigan": 4,
            "Dunsmuir": 4,
            "Durham": 4,
            "Dutch Flat": 4,
            "Eagleville": 4,
            "Earlimart": 4,
            "Earp": 5,
            "Echo Lake": 4,
            "Edwards": 4,
            "El Cajon": 15,
            "El Centro": 5,
            "El Cerrito": 4,
            "El Dorado": 4,
            "El Dorado Hills": 4,
            "El Monte": 10,
            "El Nido": 4,
            "El Portal": 4,
            "El Segundo": 5,
            "El Sobrante": 4,
            "Eldridge": 4,
            "Elk": 4,
            "Elk Creek": 4,
            "Elk Grove": 8,
            "Elmira": 4,
            "Elverta": 4,
            "Emeryville": 4,
            "Emigrant Gap": 4,
            "Encinitas": 5,
            "Encino": 10,
            "Escalon": 4,
            "Escondido": 20,
            "Esparto": 4,
            "Essex": 4,
            "Etna": 4,
            "Eureka": 8,
            "Exeter": 4,
            "Fair Oaks": 4,
            "Fairfax": 4,
            "Fairfield": 4,
            "Fall River Mills": 4,
            "Fallbrook": 5,
            "Farmersville": 4,
            "Farmington": 4,
            "Fawnskin": 4,
            "Fellows": 4,
            "Felton": 4,
            "Ferndale": 4,
            "Fiddletown": 4,
            "Fields Landing": 4,
            "Fillmore": 4,
            "Firebaugh": 4,
            "Fish Camp": 4,
            "Five Points": 4,
            "Flournoy": 4,
            "Folsom": 4,
            "Fontana": 12,
            "Foothill Ranch": 4,
            "Forbestown": 4,
            "Forest Falls": 4,
            "Forest Knolls": 4,
            "Forest Ranch": 4,
            "Foresthill": 4,
            "Forestville": 4,
            "Forks Of Salmon": 4,
            "Fort Bidwell": 4,
            "Fort Bragg": 4,
            "Fort Irwin": 4,
            "Fort Jones": 4,
            "Fortuna": 4,
            "Fountain Valley": 4,
            "Fowler": 4,
            "Frazier Park": 8,
            "Freedom": 4,
            "Fremont": 16,
            "French Camp": 4,
            "French Gulch": 4,
            "Fresno": 64,
            "Friant": 4,
            "Fullerton": 16,
            "Fulton": 4,
            "Galt": 4,
            "Garberville": 4,
            "Garden Grove": 20,
            "Garden Valley": 4,
            "Gardena": 15,
            "Gasquet": 4,
            "Gazelle": 4,
            "Georgetown": 4,
            "Gerber": 4,
            "Geyserville": 4,
            "Gilroy": 4,
            "Glen Ellen": 4,
            "Glencoe": 4,
            "Glendale": 40,
            "Glendora": 10,
            "Glenhaven": 4,
            "Glenn": 4,
            "Glennville": 4,
            "Gold Run": 4,
            "Goleta": 4,
            "Gonzales": 4,
            "Goodyears Bar": 4,
            "Granada Hills": 5,
            "Grand Terrace": 4,
            "Granite Bay": 4,
            "Grass Valley": 8,
            "Graton": 4,
            "Green Valley Lake": 4,
            "Greenbrae": 4,
            "Greenfield": 4,
            "Greenview": 4,
            "Greenville": 4,
            "Greenwood": 4,
            "Grenada": 4,
            "Gridley": 4,
            "Grimes": 4,
            "Grizzly Flats": 4,
            "Groveland": 4,
            "Grover Beach": 4,
            "Guadalupe": 4,
            "Gualala": 4,
            "Guatay": 5,
            "Guerneville": 4,
            "Guinda": 4,
            "Gustine": 4,
            "Hacienda Heights": 5,
            "Half Moon Bay": 4,
            "Hamilton City": 4,
            "Hanford": 4,
            "Happy Camp": 4,
            "Harbor City": 5,
            "Hat Creek": 4,
            "Hathaway Pines": 4,
            "Hawaiian Gardens": 5,
            "Hawthorne": 5,
            "Hayfork": 4,
            "Hayward": 16,
            "Healdsburg": 4,
            "Heber": 5,
            "Helendale": 4,
            "Helm": 4,
            "Hemet": 12,
            "Herald": 4,
            "Hercules": 4,
            "Herlong": 4,
            "Hermosa Beach": 5,
            "Hesperia": 4,
            "Hickman": 4,
            "Highland": 4,
            "Hilmar": 4,
            "Hinkley": 4,
            "Hollister": 4,
            "Holtville": 5,
            "Homeland": 4,
            "Homewood": 4,
            "Honeydew": 4,
            "Hood": 4,
            "Hoopa": 4,
            "Hopland": 4,
            "Hornbrook": 4,
            "Hornitos": 4,
            "Hughson": 4,
            "Hume": 4,
            "Huntington Beach": 16,
            "Huntington Park": 5,
            "Huron": 4,
            "Hyampom": 4,
            "Hydesville": 4,
            "Idyllwild": 4,
            "Igo": 4,
            "Imperial": 5,
            "Imperial Beach": 5,
            "Independence": 4,
            "Indian Wells": 5,
            "Indio": 10,
            "Inglewood": 25,
            "Inverness": 4,
            "Inyokern": 4,
            "Ione": 4,
            "Irvine": 28,
            "Isleton": 4,
            "Ivanhoe": 4,
            "Jackson": 4,
            "Jacumba": 5,
            "Jamestown": 4,
            "Jamul": 5,
            "Janesville": 4,
            "Jenner": 4,
            "Johannesburg": 4,
            "Jolon": 4,
            "Joshua Tree": 5,
            "Julian": 5,
            "Junction City": 4,
            "June Lake": 4,
            "Keeler": 4,
            "Keene": 4,
            "Kelseyville": 4,
            "Kenwood": 4,
            "Kerman": 4,
            "Kernville": 4,
            "Kettleman City": 4,
            "Keyes": 4,
            "King City": 4,
            "Kings Beach": 4,
            "Kingsburg": 4,
            "Kirkwood": 4,
            "Klamath": 4,
            "Klamath River": 4,
            "Kneeland": 4,
            "Knights Landing": 4,
            "Korbel": 4,
            "Kyburz": 4,
            "La Canada Flintridge": 5,
            "La Crescenta": 5,
            "La Grange": 4,
            "La Habra": 5,
            "La Honda": 4,
            "La Jolla": 5,
            "La Mesa": 10,
            "La Mirada": 5,
            "La Palma": 5,
            "La Puente": 10,
            "La Quinta": 5,
            "La Verne": 5,
            "Ladera Ranch": 4,
            "Lafayette": 4,
            "Laguna Beach": 4,
            "Laguna Hills": 4,
            "Laguna Niguel": 4,
            "Lagunitas": 4,
            "Lake Arrowhead": 4,
            "Lake City": 4,
            "Lake Elsinore": 8,
            "Lake Forest": 4,
            "Lake Hughes": 4,
            "Lake Isabella": 4,
            "Lakehead": 4,
            "Lakeport": 4,
            "Lakeshore": 4,
            "Lakeside": 5,
            "Lakewood": 15,
            "Lamont": 4,
            "Lancaster": 12,
            "Landers": 5,
            "Larkspur": 4,
            "Lathrop": 4,
            "Laton": 4,
            "Lawndale": 5,
            "Laytonville": 4,
            "Le Grand": 4,
            "Lebec": 4,
            "Lee Vining": 4,
            "Leggett": 4,
            "Lemon Cove": 4,
            "Lemon Grove": 5,
            "Lemoore": 4,
            "Lewiston": 4,
            "Likely": 4,
            "Lincoln": 4,
            "Linden": 4,
            "Lindsay": 4,
            "Litchfield": 4,
            "Little River": 4,
            "Littlerock": 4,
            "Live Oak": 4,
            "Livermore": 4,
            "Livingston": 4,
            "Llano": 4,
            "Lockeford": 4,
            "Lockwood": 4,
            "Lodi": 8,
            "Loleta": 4,
            "Loma Linda": 4,
            "Loma Mar": 4,
            "Lomita": 5,
            "Lompoc": 8,
            "Lone Pine": 4,
            "Long Barn": 4,
            "Long Beach": 60,
            "Lookout": 4,
            "Loomis": 4,
            "Los Alamitos": 5,
            "Los Alamos": 4,
            "Los Altos": 8,
            "Los Angeles": 305,
            "Los Banos": 4,
            "Los Gatos": 12,
            "Los Molinos": 4,
            "Los Olivos": 4,
            "Los Osos": 4,
            "Lost Hills": 4,
            "Lotus": 4,
            "Lower Lake": 4,
            "Loyalton": 4,
            "Lucerne": 4,
            "Lucerne Valley": 4,
            "Ludlow": 4,
            "Lynwood": 5,
            "Lytle Creek": 4,
            "Macdoel": 4,
            "Mad River": 4,
            "Madeline": 4,
            "Madera": 8,
            "Madison": 4,
            "Magalia": 4,
            "Malibu": 10,
            "Mammoth Lakes": 4,
            "Manchester": 4,
            "Manhattan Beach": 5,
            "Manteca": 8,
            "Manton": 4,
            "March Air Reserve Base": 4,
            "Maricopa": 4,
            "Marina": 4,
            "Marina Del Rey": 5,
            "Mariposa": 4,
            "Markleeville": 4,
            "Marshall": 4,
            "Martinez": 4,
            "Marysville": 4,
            "Mather": 4,
            "Maxwell": 4,
            "Maywood": 5,
            "Mc Farland": 4,
            "Mc Kittrick": 4,
            "Mcarthur": 4,
            "Mccloud": 4,
            "Mckinleyville": 4,
            "Meadow Valley": 4,
            "Meadow Vista": 4,
            "Mecca": 5,
            "Mendocino": 4,
            "Mendota": 4,
            "Menifee": 4,
            "Menlo Park": 4,
            "Mentone": 4,
            "Merced": 8,
            "Meridian": 4,
            "Mi Wuk Village": 4,
            "Middletown": 4,
            "Midpines": 4,
            "Midway City": 4,
            "Milford": 4,
            "Mill Creek": 4,
            "Mill Valley": 4,
            "Millbrae": 4,
            "Millville": 4,
            "Milpitas": 4,
            "Mineral": 4,
            "Mira Loma": 5,
            "Miramonte": 4,
            "Miranda": 4,
            "Mission Hills": 5,
            "Mission Viejo": 8,
            "Modesto": 28,
            "Mojave": 4,
            "Mokelumne Hill": 4,
            "Monrovia": 5,
            "Montague": 4,
            "Montara": 4,
            "Montclair": 5,
            "Monte Rio": 4,
            "Montebello": 5,
            "Monterey": 4,
            "Monterey Park": 10,
            "Montgomery Creek": 4,
            "Montrose": 5,
            "Moorpark": 4,
            "Moraga": 4,
            "Moreno Valley": 16,
            "Morgan Hill": 4,
            "Morongo Valley": 5,
            "Morro Bay": 4,
            "Moss Beach": 4,
            "Moss Landing": 4,
            "Mount Hamilton": 4,
            "Mount Hermon": 4,
            "Mount Laguna": 5,
            "Mount Shasta": 4,
            "Mountain Center": 4,
            "Mountain Ranch": 4,
            "Mountain View": 12,
            "Mt Baldy": 5,
            "Murphys": 4,
            "Murrieta": 8,
            "Myers Flat": 4,
            "Napa": 8,
            "National City": 5,
            "Navarro": 4,
            "Needles": 4,
            "Nevada City": 4,
            "New Cuyama": 4,
            "Newark": 4,
            "Newberry Springs": 4,
            "Newbury Park": 5,
            "Newcastle": 4,
            "Newhall": 5,
            "Newman": 4,
            "Newport Beach": 16,
            "Newport Coast": 4,
            "Nicasio": 4,
            "Nice": 4,
            "Nicolaus": 4,
            "Niland": 5,
            "Nipomo": 4,
            "Nipton": 4,
            "Norco": 4,
            "North Fork": 4,
            "North Highlands": 4,
            "North Hills": 5,
            "North Hollywood": 20,
            "North Palm Springs": 5,
            "North San Juan": 4,
            "Northridge": 10,
            "Norwalk": 5,
            "Novato": 12,
            "Nubieber": 4,
            "Nuevo": 4,
            "O Neals": 4,
            "Oak Park": 5,
            "Oak Run": 4,
            "Oak View": 4,
            "Oakdale": 4,
            "Oakhurst": 4,
            "Oakland": 52,
            "Oakley": 4,
            "Occidental": 4,
            "Oceano": 4,
            "Oceanside": 15,
            "Ocotillo": 5,
            "Ojai": 4,
            "Olancha": 4,
            "Old Station": 4,
            "Olema": 4,
            "Olivehurst": 4,
            "Olympic Valley": 4,
            "Ontario": 15,
            "Onyx": 4,
            "Orange": 20,
            "Orange Cove": 4,
            "Orangevale": 4,
            "Oregon House": 4,
            "Orick": 4,
            "Orinda": 4,
            "Orland": 4,
            "Orleans": 4,
            "Oro Grande": 4,
            "Orosi": 4,
            "Oroville": 8,
            "Oxnard": 12,
            "Pacific Grove": 4,
            "Pacific Palisades": 5,
            "Pacifica": 4,
            "Pacoima": 5,
            "Paicines": 4,
            "Pala": 5,
            "Palermo": 4,
            "Palm Desert": 10,
            "Palm Springs": 10,
            "Palmdale": 16,
            "Palo Alto": 16,
            "Palo Cedro": 4,
            "Palo Verde": 5,
            "Palomar Mountain": 5,
            "Palos Verdes Peninsula": 5,
            "Panorama City": 5,
            "Paradise": 4,
            "Paramount": 5,
            "Parker Dam": 5,
            "Parlier": 4,
            "Pasadena": 30,
            "Paskenta": 4,
            "Paso Robles": 4,
            "Patterson": 4,
            "Pauma Valley": 5,
            "Paynes Creek": 4,
            "Pearblossom": 4,
            "Pebble Beach": 4,
            "Penn Valley": 4,
            "Penngrove": 4,
            "Penryn": 4,
            "Perris": 8,
            "Pescadero": 4,
            "Petaluma": 8,
            "Petrolia": 4,
            "Phelan": 4,
            "Phillipsville": 4,
            "Philo": 4,
            "Pico Rivera": 5,
            "Piercy": 4,
            "Pilot Hill": 4,
            "Pine Grove": 4,
            "Pine Valley": 5,
            "Pinecrest": 4,
            "Pinole": 4,
            "Pinon Hills": 4,
            "Pioneer": 4,
            "Pioneertown": 5,
            "Piru": 4,
            "Pismo Beach": 4,
            "Pittsburg": 4,
            "Pixley": 4,
            "Placentia": 4,
            "Placerville": 4,
            "Planada": 4,
            "Platina": 4,
            "Playa Del Rey": 5,
            "Pleasant Grove": 4,
            "Pleasant Hill": 4,
            "Pleasanton": 8,
            "Plymouth": 4,
            "Point Arena": 4,
            "Point Reyes Station": 4,
            "Pollock Pines": 4,
            "Pomona": 15,
            "Pope Valley": 4,
            "Port Costa": 4,
            "Port Hueneme": 4,
            "Porter Ranch": 5,
            "Porterville": 4,
            "Portola": 4,
            "Portola Valley": 4,
            "Posey": 4,
            "Potrero": 5,
            "Potter Valley": 4,
            "Poway": 5,
            "Prather": 4,
            "Princeton": 4,
            "Quincy": 4,
            "Raisin City": 4,
            "Ramona": 5,
            "Ranchita": 5,
            "Rancho Cordova": 8,
            "Rancho Cucamonga": 20,
            "Rancho Mirage": 5,
            "Rancho Palos Verdes": 5,
            "Rancho Santa Fe": 10,
            "Rancho Santa Margarita": 4,
            "Randsburg": 4,
            "Ravendale": 4,
            "Raymond": 4,
            "Red Bluff": 4,
            "Redcrest": 4,
            "Redding": 12,
            "Redlands": 8,
            "Redondo Beach": 10,
            "Redway": 4,
            "Redwood City": 16,
            "Redwood Valley": 4,
            "Reedley": 4,
            "Rescue": 4,
            "Reseda": 5,
            "Rialto": 8,
            "Richgrove": 4,
            "Richmond": 12,
            "Richvale": 4,
            "Ridgecrest": 4,
            "Rio Dell": 4,
            "Rio Linda": 4,
            "Rio Nido": 4,
            "Rio Oso": 4,
            "Rio Vista": 4,
            "Ripon": 4,
            "River Pines": 4,
            "Riverbank": 4,
            "Riverdale": 4,
            "Riverside": 32,
            "Rocklin": 8,
            "Rodeo": 4,
            "Rohnert Park": 4,
            "Rosamond": 4,
            "Rosemead": 5,
            "Roseville": 12,
            "Rough And Ready": 4,
            "Round Mountain": 4,
            "Rowland Heights": 5,
            "Running Springs": 4,
            "Sacramento": 108,
            "Saint Helena": 4,
            "Salida": 4,
            "Salinas": 20,
            "Salton City": 5,
            "Salyer": 4,
            "Samoa": 4,
            "San Andreas": 4,
            "San Anselmo": 4,
            "San Ardo": 4,
            "San Bernardino": 28,
            "San Bruno": 4,
            "San Carlos": 4,
            "San Clemente": 8,
            "San Diego": 150,
            "San Dimas": 5,
            "San Fernando": 5,
            "San Francisco": 104,
            "San Gabriel": 10,
            "San Geronimo": 4,
            "San Gregorio": 4,
            "San Jacinto": 8,
            "San Joaquin": 4,
            "San Jose": 112,
            "San Juan Bautista": 4,
            "San Juan Capistrano": 4,
            "San Leandro": 12,
            "San Lorenzo": 4,
            "San Lucas": 4,
            "San Luis Obispo": 8,
            "San Marcos": 10,
            "San Marino": 5,
            "San Martin": 4,
            "San Mateo": 16,
            "San Miguel": 4,
            "San Pablo": 4,
            "San Pedro": 10,
            "San Quentin": 4,
            "San Rafael": 8,
            "San Ramon": 4,
            "San Simeon": 4,
            "San Ysidro": 5,
            "Sanger": 4,
            "Santa Ana": 24,
            "Santa Barbara": 28,
            "Santa Clara": 12,
            "Santa Clarita": 5,
            "Santa Cruz": 16,
            "Santa Fe Springs": 5,
            "Santa Margarita": 4,
            "Santa Maria": 12,
            "Santa Monica": 25,
            "Santa Paula": 4,
            "Santa Rosa": 24,
            "Santa Ynez": 4,
            "Santa Ysabel": 5,
            "Santee": 5,
            "Saratoga": 4,
            "Sausalito": 4,
            "Scotia": 4,
            "Scott Bar": 4,
            "Scotts Valley": 4,
            "Seal Beach": 5,
            "Seaside": 4,
            "Sebastopol": 4,
            "Seeley": 5,
            "Seiad Valley": 4,
            "Selma": 4,
            "Sequoia National Park": 4,
            "Shafter": 4,
            "Shandon": 4,
            "Shasta": 4,
            "Shasta Lake": 4,
            "Shaver Lake": 4,
            "Sheep Ranch": 4,
            "Sheridan": 4,
            "Sherman Oaks": 10,
            "Shingle Springs": 4,
            "Shingletown": 4,
            "Shoshone": 4,
            "Sierra City": 4,
            "Sierra Madre": 5,
            "Sierraville": 4,
            "Silverado": 4,
            "Simi Valley": 8,
            "Sloughhouse": 4,
            "Smartville": 4,
            "Smith River": 4,
            "Snelling": 4,
            "Soda Springs": 4,
            "Solana Beach": 5,
            "Soledad": 4,
            "Solvang": 4,
            "Somerset": 4,
            "Somes Bar": 4,
            "Somis": 4,
            "Sonoma": 4,
            "Sonora": 4,
            "Soquel": 4,
            "Soulsbyville": 4,
            "South Dos Palos": 4,
            "South El Monte": 5,
            "South Gate": 5,
            "South Lake Tahoe": 4,
            "South Pasadena": 5,
            "South San Francisco": 4,
            "Spreckels": 4,
            "Spring Valley": 10,
            "Springville": 4,
            "Squaw Valley": 4,
            "Standish": 4,
            "Stanford": 4,
            "Stanton": 5,
            "Stevenson Ranch": 5,
            "Stevinson": 4,
            "Stinson Beach": 4,
            "Stirling City": 4,
            "Stockton": 44,
            "Stonyford": 4,
            "Stratford": 4,
            "Strathmore": 4,
            "Strawberry Valley": 4,
            "Studio City": 5,
            "Sugarloaf": 4,
            "Suisun City": 4,
            "Sultana": 4,
            "Summerland": 4,
            "Sun City": 12,
            "Sun Valley": 5,
            "Sunland": 5,
            "Sunnyvale": 12,
            "Sunol": 4,
            "Sunset Beach": 5,
            "Surfside": 5,
            "Susanville": 4,
            "Sutter": 4,
            "Sutter Creek": 4,
            "Sylmar": 5,
            "Taft": 4,
            "Tahoe City": 4,
            "Tahoe Vista": 4,
            "Tahoma": 4,
            "Tarzana": 5,
            "Taylorsville": 4,
            "Tecate": 5,
            "Tecopa": 4,
            "Tehachapi": 4,
            "Tehama": 4,
            "Temecula": 12,
            "Temple City": 5,
            "Templeton": 4,
            "Termo": 4,
            "Terra Bella": 4,
            "The Sea Ranch": 4,
            "Thermal": 5,
            "Thornton": 4,
            "Thousand Oaks": 10,
            "Thousand Palms": 5,
            "Three Rivers": 4,
            "Tipton": 4,
            "Tollhouse": 4,
            "Tomales": 4,
            "Topanga": 5,
            "Topaz": 4,
            "Torrance": 25,
            "Trabuco Canyon": 4,
            "Tracy": 4,
            "Tranquillity": 4,
            "Traver": 4,
            "Travis Afb": 4,
            "Trinidad": 4,
            "Trinity Center": 4,
            "Trona": 4,
            "Truckee": 4,
            "Tujunga": 5,
            "Tulare": 4,
            "Tulelake": 4,
            "Tuolumne": 4,
            "Tupman": 4,
            "Turlock": 8,
            "Tustin": 8,
            "Twain": 4,
            "Twain Harte": 4,
            "Twentynine Palms": 10,
            "Twin Bridges": 4,
            "Ukiah": 4,
            "Union City": 4,
            "Upland": 10,
            "Upper Lake": 4,
            "Vacaville": 8,
            "Valencia": 10,
            "Vallecito": 4,
            "Vallejo": 16,
            "Valley Center": 5,
            "Valley Ford": 4,
            "Valley Springs": 4,
            "Valley Village": 5,
            "Valyermo": 4,
            "Van Nuys": 20,
            "Venice": 5,
            "Ventura": 12,
            "Vernalis": 4,
            "Victorville": 8,
            "Vidal": 5,
            "Villa Park": 4,
            "Vina": 4,
            "Visalia": 12,
            "Vista": 10,
            "Volcano": 4,
            "Wallace": 4,
            "Walnut": 5,
            "Walnut Creek": 12,
            "Walnut Grove": 4,
            "Warner Springs": 5,
            "Wasco": 4,
            "Washington": 4,
            "Waterford": 4,
            "Watsonville": 4,
            "Weaverville": 4,
            "Weed": 4,
            "Weimar": 4,
            "Weldon": 4,
            "Wendel": 4,
            "Weott": 4,
            "West Covina": 15,
            "West Hills": 5,
            "West Hollywood": 5,
            "West Point": 4,
            "West Sacramento": 8,
            "Westlake Village": 5,
            "Westley": 4,
            "Westminster": 4,
            "Westmorland": 5,
            "Westport": 4,
            "Westwood": 4,
            "Wheatland": 4,
            "White Water": 5,
            "Whitethorn": 4,
            "Whitmore": 4,
            "Whittier": 30,
            "Wildomar": 4,
            "Williams": 4,
            "Willits": 4,
            "Willow Creek": 4,
            "Willows": 4,
            "Wilmington": 5,
            "Wilseyville": 4,
            "Wilton": 4,
            "Winchester": 4,
            "Windsor": 4,
            "Winnetka": 5,
            "Winterhaven": 5,
            "Winters": 4,
            "Winton": 4,
            "Wishon": 4,
            "Witter Springs": 4,
            "Wofford Heights": 4,
            "Woodacre": 4,
            "Woodbridge": 4,
            "Woodlake": 4,
            "Woodland": 8,
            "Woodland Hills": 10,
            "Woody": 4,
            "Wrightwood": 4,
            "Yermo": 4,
            "Yorba Linda": 8,
            "Yorkville": 4,
            "Yosemite National Park": 4,
            "Yountville": 4,
            "Yreka": 4,
            "Yuba City": 8,
            "Yucaipa": 4,
            "Yucca Valley": 5,
            "Zenia": 4
        },
        "str2idx": {
            "<UNK>": 0,
            "Acampo": 429,
            "Acton": 939,
            "Adelanto": 199,
            "Adin": 675,
            "Agoura Hills": 210,
            "Aguanga": 805,
            "Ahwahnee": 721,
            "Alameda": 155,
            "Alamo": 977,
            "Albany": 411,
            "Albion": 1023,
            "Alderpoint": 460,
            "Alhambra": 85,
            "Aliso Viejo": 900,
            "Alleghany": 1078,
            "Alpaugh": 347,
            "Alpine": 179,
            "Alta": 1073,
            "Altadena": 167,
            "Alturas": 531,
            "Alviso": 423,
            "Amador City": 477,
            "Amboy": 237,
            "Anaheim": 18,
            "Anderson": 512,
            "Angels Camp": 614,
            "Angelus Oaks": 238,
            "Angwin": 828,
            "Annapolis": 846,
            "Antelope": 499,
            "Antioch": 402,
            "Anza": 550,
            "Apple Valley": 90,
            "Applegate": 656,
            "Aptos": 834,
            "Arbuckle": 500,
            "Arcadia": 101,
            "Arcata": 1046,
            "Armona": 348,
            "Arnold": 745,
            "Aromas": 611,
            "Arroyo Grande": 923,
            "Artesia": 300,
            "Arvin": 908,
            "Atascadero": 924,
            "Atherton": 593,
            "Atwater": 434,
            "Auberry": 948,
            "Auburn": 149,
            "Avalon": 164,
            "Avenal": 349,
            "Avery": 615,
            "Avila Beach": 925,
            "Azusa": 262,
            "Badger": 822,
            "Baker": 544,
            "Bakersfield": 11,
            "Baldwin Park": 309,
            "Ballico": 620,
            "Bangor": 501,
            "Banning": 231,
            "Barstow": 800,
            "Bass Lake": 377,
            "Bayside": 462,
            "Beale Afb": 663,
            "Beaumont": 286,
            "Bell": 290,
            "Bella Vista": 789,
            "Bellflower": 205,
            "Belmont": 397,
            "Belvedere Tiburon": 986,
            "Ben Lomond": 835,
            "Benicia": 978,
            "Benton": 572,
            "Berkeley": 13,
            "Berry Creek": 1079,
            "Bethel Island": 979,
            "Beverly Hills": 49,
            "Bieber": 676,
            "Big Bar": 1095,
            "Big Bear City": 694,
            "Big Bear Lake": 884,
            "Big Bend": 513,
            "Big Creek": 722,
            "Big Oak Flat": 435,
            "Big Pine": 818,
            "Big Sur": 390,
            "Biggs": 1080,
            "Biola": 378,
            "Birds Landing": 403,
            "Bishop": 940,
            "Blairsden Graeagle": 687,
            "Blocksburg": 1045,
            "Bloomington": 695,
            "Blue Lake": 463,
            "Blythe": 268,
            "Bodega": 987,
            "Bodega Bay": 413,
            "Bodfish": 350,
            "Bolinas": 738,
            "Bonita": 180,
            "Bonsall": 224,
            "Boonville": 1024,
            "Boron": 717,
            "Borrego Springs": 185,
            "Boulder Creek": 424,
            "Boulevard": 181,
            "Bradley": 567,
            "Branscomb": 448,
            "Brawley": 251,
            "Brea": 118,
            "Brentwood": 980,
            "Bridgeport": 941,
            "Bridgeville": 464,
            "Brisbane": 591,
            "Brookdale": 994,
            "Brooks": 640,
            "Browns Valley": 780,
            "Brownsville": 864,
            "Buellton": 568,
            "Buena Park": 94,
            "Burbank": 24,
            "Burlingame": 592,
            "Burney": 677,
            "Burnt Ranch": 854,
            "Burson": 1002,
            "Butte City": 664,
            "Buttonwillow": 562,
            "Byron": 404,
            "Cabazon": 287,
            "Calabasas": 304,
            "Calexico": 252,
            "Caliente": 819,
            "California City": 938,
            "California Hot Springs": 808,
            "Calimesa": 696,
            "Calipatria": 288,
            "Calistoga": 732,
            "Callahan": 514,
            "Calpine": 1126,
            "Camarillo": 137,
            "Cambria": 926,
            "Camino": 657,
            "Camp Nelson": 351,
            "Campbell": 836,
            "Campo": 248,
            "Campo Seco": 746,
            "Camptonville": 665,
            "Canby": 869,
            "Canoga Park": 82,
            "Cantua Creek": 578,
            "Canyon Country": 217,
            "Canyon Dam": 502,
            "Capay": 1059,
            "Capistrano Beach": 806,
            "Capitola": 741,
            "Cardiff By The Sea": 225,
            "Carlotta": 1047,
            "Carlsbad": 86,
            "Carmel": 391,
            "Carmel By The Sea": 824,
            "Carmel Valley": 589,
            "Carmichael": 478,
            "Carnelian Bay": 798,
            "Carpinteria": 705,
            "Carson": 81,
            "Caruthers": 949,
            "Casmalia": 715,
            "Caspar": 449,
            "Cassel": 870,
            "Castaic": 245,
            "Castella": 790,
            "Castro Valley": 125,
            "Castroville": 995,
            "Cathedral City": 323,
            "Catheys Valley": 621,
            "Cayucos": 927,
            "Cazadero": 1025,
            "Cedar Glen": 545,
            "Cedarville": 1115,
            "Ceres": 1008,
            "Cerritos": 258,
            "Challenge": 503,
            "Chatsworth": 243,
            "Chester": 1096,
            "Chico": 76,
            "Chilcoot": 1116,
            "Chino": 219,
            "Chino Hills": 310,
            "Chowchilla": 950,
            "Chualar": 825,
            "Chula Vista": 25,
            "Citrus Heights": 143,
            "Claremont": 220,
            "Clarksburg": 772,
            "Clayton": 829,
            "Clearlake": 450,
            "Clearlake Oaks": 627,
            "Clements": 747,
            "Clio": 1117,
            "Clipper Mills": 666,
            "Cloverdale": 451,
            "Clovis": 138,
            "Coachella": 269,
            "Coalinga": 352,
            "Coarsegold": 951,
            "Cobb": 761,
            "Coleville": 1118,
            "Colfax": 496,
            "Colton": 546,
            "Columbia": 436,
            "Colusa": 667,
            "Comptche": 452,
            "Compton": 57,
            "Concord": 42,
            "Cool": 858,
            "Copperopolis": 1003,
            "Corcoran": 809,
            "Corning": 515,
            "Corona": 34,
            "Corona Del Mar": 553,
            "Coronado": 230,
            "Corte Madera": 739,
            "Costa Mesa": 146,
            "Cotati": 414,
            "Cottonwood": 516,
            "Coulterville": 1009,
            "Courtland": 1060,
            "Covelo": 628,
            "Covina": 51,
            "Crescent City": 465,
            "Crescent Mills": 781,
            "Cressey": 1010,
            "Crestline": 331,
            "Creston": 928,
            "Crockett": 595,
            "Crows Landing": 752,
            "Culver City": 91,
            "Cupertino": 742,
            "Cutler": 579,
            "Cypress": 297,
            "Daggett": 332,
            "Daly City": 123,
            "Dana Point": 554,
            "Danville": 139,
            "Darwin": 942,
            "Davenport": 425,
            "Davis": 131,
            "Davis Creek": 532,
            "Death Valley": 885,
            "Deer Park": 604,
            "Del Mar": 186,
            "Del Rey": 952,
            "Delano": 353,
            "Delhi": 437,
            "Denair": 841,
            "Descanso": 315,
            "Desert Center": 232,
            "Desert Hot Springs": 89,
            "Diamond Bar": 313,
            "Diamond Springs": 479,
            "Dillon Beach": 988,
            "Dinuba": 580,
            "Dixon": 480,
            "Dobbins": 504,
            "Dorris": 678,
            "Dos Palos": 953,
            "Dos Rios": 1026,
            "Douglas City": 517,
            "Downey": 59,
            "Downieville": 668,
            "Doyle": 688,
            "Duarte": 259,
            "Dublin": 601,
            "Ducor": 708,
            "Dulzura": 222,
            "Duncans Mills": 1027,
            "Dunlap": 581,
            "Dunnigan": 505,
            "Dunsmuir": 872,
            "Durham": 1081,
            "Dutch Flat": 658,
            "Eagleville": 689,
            "Earlimart": 354,
            "Earp": 324,
            "Echo Lake": 659,
            "Edwards": 718,
            "El Cajon": 55,
            "El Centro": 289,
            "El Cerrito": 981,
            "El Dorado": 641,
            "El Dorado Hills": 1076,
            "El Monte": 83,
            "El Nido": 1011,
            "El Portal": 1012,
            "El Segundo": 255,
            "El Sobrante": 607,
            "Eldridge": 453,
            "Elk": 762,
            "Elk Creek": 782,
            "Elk Grove": 132,
            "Elmira": 481,
            "Elverta": 642,
            "Emeryville": 606,
            "Emigrant Gap": 779,
            "Encinitas": 226,
            "Encino": 102,
            "Escalon": 1013,
            "Escondido": 30,
            "Esparto": 1061,
            "Essex": 886,
            "Etna": 873,
            "Eureka": 141,
            "Exeter": 355,
            "Fair Oaks": 773,
            "Fairfax": 989,
            "Fairfield": 596,
            "Fall River Mills": 518,
            "Fallbrook": 249,
            "Farmersville": 810,
            "Farmington": 1004,
            "Fawnskin": 547,
            "Fellows": 356,
            "Felton": 837,
            "Ferndale": 466,
            "Fiddletown": 1062,
            "Fields Landing": 767,
            "Fillmore": 906,
            "Firebaugh": 954,
            "Fish Camp": 955,
            "Five Points": 379,
            "Flournoy": 874,
            "Folsom": 482,
            "Fontana": 71,
            "Foothill Ranch": 552,
            "Forbestown": 865,
            "Forest Falls": 887,
            "Forest Knolls": 415,
            "Forest Ranch": 506,
            "Foresthill": 1063,
            "Forestville": 1028,
            "Forks Of Salmon": 1097,
            "Fort Bidwell": 533,
            "Fort Bragg": 1029,
            "Fort Irwin": 882,
            "Fort Jones": 519,
            "Fortuna": 1048,
            "Fountain Valley": 904,
            "Fowler": 582,
            "Frazier Park": 148,
            "Freedom": 426,
            "Fremont": 43,
            "French Camp": 748,
            "French Gulch": 1098,
            "Fresno": 6,
            "Friant": 380,
            "Fullerton": 47,
            "Fulton": 454,
            "Galt": 774,
            "Garberville": 855,
            "Garden Grove": 31,
            "Garden Valley": 643,
            "Gardena": 58,
            "Gasquet": 636,
            "Gazelle": 1099,
            "Georgetown": 1064,
            "Gerber": 1100,
            "Geyserville": 1030,
            "Gilroy": 427,
            "Glen Ellen": 763,
            "Glencoe": 430,
            "Glendale": 10,
            "Glendora": 104,
            "Glenhaven": 1031,
            "Glenn": 1082,
            "Glennville": 909,
            "Gold Run": 1074,
            "Goleta": 907,
            "Gonzales": 965,
            "Goodyears Bar": 1083,
            "Granada Hills": 216,
            "Grand Terrace": 883,
            "Granite Bay": 662,
            "Grass Valley": 134,
            "Graton": 847,
            "Green Valley Lake": 697,
            "Greenbrae": 412,
            "Greenfield": 826,
            "Greenview": 875,
            "Greenville": 1085,
            "Greenwood": 483,
            "Grenada": 1101,
            "Gridley": 866,
            "Grimes": 669,
            "Grizzly Flats": 644,
            "Groveland": 842,
            "Grover Beach": 929,
            "Guadalupe": 716,
            "Gualala": 455,
            "Guatay": 182,
            "Guerneville": 629,
            "Guinda": 645,
            "Gustine": 753,
            "Hacienda Heights": 263,
            "Half Moon Bay": 730,
            "Hamilton City": 783,
            "Hanford": 910,
            "Happy Camp": 791,
            "Harbor City": 165,
            "Hat Creek": 792,
            "Hathaway Pines": 616,
            "Hawaiian Gardens": 277,
            "Hawthorne": 200,
            "Hayfork": 520,
            "Hayward": 44,
            "Healdsburg": 630,
            "Heber": 233,
            "Helendale": 888,
            "Helm": 723,
            "Hemet": 60,
            "Herald": 646,
            "Hercules": 982,
            "Herlong": 1119,
            "Hermosa Beach": 201,
            "Hesperia": 889,
            "Hickman": 438,
            "Highland": 801,
            "Hilmar": 1014,
            "Hinkley": 698,
            "Hollister": 838,
            "Holtville": 193,
            "Homeland": 341,
            "Homewood": 539,
            "Honeydew": 467,
            "Hood": 775,
            "Hoopa": 768,
            "Hopland": 848,
            "Hornbrook": 876,
            "Hornitos": 1015,
            "Hughson": 754,
            "Hume": 583,
            "Huntington Beach": 37,
            "Huntington Park": 159,
            "Huron": 357,
            "Hyampom": 1102,
            "Hydesville": 637,
            "Idyllwild": 342,
            "Igo": 521,
            "Imperial": 270,
            "Imperial Beach": 264,
            "Independence": 573,
            "Indian Wells": 192,
            "Indio": 87,
            "Inglewood": 21,
            "Inverness": 608,
            "Inyokern": 574,
            "Ione": 1065,
            "Irvine": 17,
            "Isleton": 647,
            "Ivanhoe": 811,
            "Jackson": 484,
            "Jacumba": 183,
            "Jamestown": 843,
            "Jamul": 223,
            "Janesville": 1120,
            "Jenner": 631,
            "Johannesburg": 371,
            "Jolon": 392,
            "Joshua Tree": 271,
            "Julian": 265,
            "Junction City": 1103,
            "June Lake": 943,
            "Keeler": 944,
            "Keene": 372,
            "Kelseyville": 1032,
            "Kenwood": 1033,
            "Kerman": 381,
            "Kernville": 358,
            "Kettleman City": 911,
            "Keyes": 1016,
            "King City": 393,
            "Kings Beach": 799,
            "Kingsburg": 724,
            "Kirkwood": 859,
            "Klamath": 638,
            "Klamath River": 522,
            "Kneeland": 1049,
            "Knights Landing": 485,
            "Korbel": 468,
            "Kyburz": 863,
            "La Canada Flintridge": 279,
            "La Crescenta": 303,
            "La Grange": 755,
            "La Habra": 162,
            "La Honda": 969,
            "La Jolla": 227,
            "La Mesa": 105,
            "La Mirada": 298,
            "La Palma": 203,
            "La Puente": 84,
            "La Quinta": 234,
            "La Verne": 311,
            "Ladera Ranch": 703,
            "Lafayette": 733,
            "Laguna Beach": 807,
            "Laguna Hills": 899,
            "Laguna Niguel": 902,
            "Lagunitas": 990,
            "Lake Arrowhead": 890,
            "Lake City": 534,
            "Lake Elsinore": 145,
            "Lake Forest": 343,
            "Lake Hughes": 719,
            "Lake Isabella": 912,
            "Lakehead": 523,
            "Lakeport": 849,
            "Lakeshore": 956,
            "Lakeside": 266,
            "Lakewood": 50,
            "Lamont": 913,
            "Lancaster": 64,
            "Landers": 275,
            "Larkspur": 416,
            "Lathrop": 756,
            "Laton": 914,
            "Lawndale": 239,
            "Laytonville": 850,
            "Le Grand": 1017,
            "Lebec": 812,
            "Lee Vining": 575,
            "Leggett": 1058,
            "Lemon Cove": 359,
            "Lemon Grove": 316,
            "Lemoore": 709,
            "Lewiston": 524,
            "Likely": 535,
            "Lincoln": 1066,
            "Linden": 431,
            "Lindsay": 360,
            "Litchfield": 1121,
            "Little River": 1034,
            "Littlerock": 945,
            "Live Oak": 784,
            "Livermore": 405,
            "Livingston": 844,
            "Llano": 946,
            "Lockeford": 749,
            "Lockwood": 394,
            "Lodi": 129,
            "Loleta": 469,
            "Loma Linda": 891,
            "Loma Mar": 398,
            "Lomita": 206,
            "Lompoc": 121,
            "Lone Pine": 820,
            "Long Barn": 439,
            "Long Beach": 7,
            "Lookout": 1104,
            "Loomis": 776,
            "Los Alamitos": 166,
            "Los Alamos": 367,
            "Los Altos": 124,
            "Los Angeles": 1,
            "Los Banos": 957,
            "Los Gatos": 70,
            "Los Molinos": 877,
            "Los Olivos": 930,
            "Los Osos": 566,
            "Lost Hills": 915,
            "Lotus": 648,
            "Lower Lake": 1035,
            "Loyalton": 1122,
            "Lucerne": 851,
            "Lucerne Valley": 334,
            "Ludlow": 333,
            "Lynwood": 160,
            "Lytle Creek": 335,
            "Macdoel": 1106,
            "Mad River": 1050,
            "Madeline": 1123,
            "Madera": 122,
            "Madison": 486,
            "Magalia": 507,
            "Malibu": 92,
            "Mammoth Lakes": 947,
            "Manchester": 1036,
            "Manhattan Beach": 291,
            "Manteca": 157,
            "Manton": 1107,
            "March Air Reserve Base": 340,
            "Maricopa": 361,
            "Marina": 395,
            "Marina Del Rey": 161,
            "Mariposa": 440,
            "Markleeville": 1124,
            "Marshall": 417,
            "Martinez": 406,
            "Marysville": 1077,
            "Mather": 649,
            "Maxwell": 785,
            "Maywood": 292,
            "Mc Farland": 916,
            "Mc Kittrick": 563,
            "Mcarthur": 878,
            "Mccloud": 1105,
            "Mckinleyville": 461,
            "Meadow Valley": 786,
            "Meadow Vista": 497,
            "Mecca": 325,
            "Mendocino": 764,
            "Mendota": 382,
            "Menifee": 896,
            "Menlo Park": 970,
            "Mentone": 548,
            "Merced": 140,
            "Meridian": 1086,
            "Mi Wuk Village": 441,
            "Middletown": 1037,
            "Midpines": 1018,
            "Midway City": 555,
            "Milford": 1125,
            "Mill Creek": 879,
            "Mill Valley": 609,
            "Millbrae": 731,
            "Millville": 1108,
            "Milpitas": 743,
            "Mineral": 679,
            "Mira Loma": 247,
            "Miramonte": 383,
            "Miranda": 470,
            "Mission Hills": 171,
            "Mission Viejo": 152,
            "Modesto": 20,
            "Mojave": 370,
            "Mokelumne Hill": 1005,
            "Monrovia": 168,
            "Montague": 680,
            "Montara": 971,
            "Montclair": 284,
            "Monte Rio": 1038,
            "Montebello": 240,
            "Monterey": 966,
            "Monterey Park": 97,
            "Montgomery Creek": 1109,
            "Montrose": 260,
            "Moorpark": 558,
            "Moraga": 598,
            "Moreno Valley": 36,
            "Morgan Hill": 744,
            "Morongo Valley": 326,
            "Morro Bay": 569,
            "Moss Beach": 972,
            "Moss Landing": 612,
            "Mount Hamilton": 1001,
            "Mount Hermon": 996,
            "Mount Laguna": 184,
            "Mount Shasta": 1110,
            "Mountain Center": 895,
            "Mountain Ranch": 617,
            "Mountain View": 65,
            "Mt Baldy": 312,
            "Murphys": 750,
            "Murrieta": 116,
            "Myers Flat": 769,
            "Napa": 126,
            "National City": 317,
            "Navarro": 852,
            "Needles": 892,
            "Nevada City": 508,
            "New Cuyama": 813,
            "Newark": 983,
            "Newberry Springs": 699,
            "Newbury Park": 306,
            "Newcastle": 650,
            "Newhall": 211,
            "Newman": 622,
            "Newport Beach": 38,
            "Newport Coast": 556,
            "Nicasio": 418,
            "Nice": 456,
            "Nicolaus": 651,
            "Niland": 194,
            "Nipomo": 570,
            "Nipton": 893,
            "Norco": 344,
            "North Fork": 584,
            "North Highlands": 1067,
            "North Hills": 282,
            "North Hollywood": 29,
            "North Palm Springs": 195,
            "North San Juan": 1087,
            "Northridge": 95,
            "Norwalk": 299,
            "Novato": 69,
            "Nubieber": 525,
            "Nuevo": 551,
            "O Neals": 958,
            "Oak Park": 307,
            "Oak Run": 681,
            "Oak View": 559,
            "Oakdale": 442,
            "Oakhurst": 585,
            "Oakland": 8,
            "Oakley": 830,
            "Occidental": 1039,
            "Oceano": 368,
            "Oceanside": 56,
            "Ocotillo": 196,
            "Ojai": 706,
            "Olancha": 821,
            "Old Station": 682,
            "Olema": 832,
            "Olivehurst": 787,
            "Olympic Valley": 1129,
            "Ontario": 52,
            "Onyx": 362,
            "Orange": 33,
            "Orange Cove": 959,
            "Orangevale": 487,
            "Oregon House": 1088,
            "Orick": 1051,
            "Orinda": 599,
            "Orland": 867,
            "Orleans": 1052,
            "Oro Grande": 700,
            "Orosi": 384,
            "Oroville": 135,
            "Oxnard": 72,
            "Pacific Grove": 728,
            "Pacific Palisades": 202,
            "Pacifica": 973,
            "Pacoima": 213,
            "Paicines": 997,
            "Pala": 187,
            "Palermo": 670,
            "Palm Desert": 88,
            "Palm Springs": 107,
            "Palmdale": 39,
            "Palo Alto": 40,
            "Palo Cedro": 526,
            "Palo Verde": 327,
            "Palomar Mountain": 188,
            "Palos Verdes Peninsula": 293,
            "Panorama City": 175,
            "Paradise": 1089,
            "Paramount": 278,
            "Parker Dam": 272,
            "Parlier": 725,
            "Pasadena": 15,
            "Paskenta": 683,
            "Paso Robles": 931,
            "Patterson": 623,
            "Pauma Valley": 189,
            "Paynes Creek": 793,
            "Pearblossom": 373,
            "Pebble Beach": 396,
            "Penn Valley": 1084,
            "Penngrove": 991,
            "Penryn": 488,
            "Perris": 117,
            "Pescadero": 399,
            "Petaluma": 156,
            "Petrolia": 856,
            "Phelan": 336,
            "Phillipsville": 1053,
            "Philo": 632,
            "Pico Rivera": 163,
            "Piercy": 639,
            "Pilot Hill": 652,
            "Pine Grove": 653,
            "Pine Valley": 318,
            "Pinecrest": 757,
            "Pinole": 407,
            "Pinon Hills": 894,
            "Pioneer": 777,
            "Pioneertown": 328,
            "Piru": 560,
            "Pismo Beach": 369,
            "Pittsburg": 734,
            "Pixley": 917,
            "Placentia": 704,
            "Placerville": 1068,
            "Planada": 624,
            "Platina": 880,
            "Playa Del Rey": 296,
            "Pleasant Grove": 489,
            "Pleasant Hill": 594,
            "Pleasanton": 127,
            "Plymouth": 490,
            "Point Arena": 633,
            "Point Reyes Station": 740,
            "Pollock Pines": 660,
            "Pomona": 53,
            "Pope Valley": 600,
            "Port Costa": 735,
            "Port Hueneme": 345,
            "Porter Ranch": 212,
            "Porterville": 710,
            "Portola": 536,
            "Portola Valley": 827,
            "Posey": 363,
            "Potrero": 319,
            "Potter Valley": 1040,
            "Poway": 285,
            "Prather": 586,
            "Princeton": 509,
            "Quincy": 671,
            "Raisin City": 960,
            "Ramona": 228,
            "Ranchita": 190,
            "Rancho Cordova": 133,
            "Rancho Cucamonga": 35,
            "Rancho Mirage": 235,
            "Rancho Palos Verdes": 294,
            "Rancho Santa Fe": 110,
            "Rancho Santa Margarita": 702,
            "Randsburg": 374,
            "Ravendale": 537,
            "Raymond": 961,
            "Red Bluff": 684,
            "Redcrest": 1055,
            "Redding": 78,
            "Redlands": 113,
            "Redondo Beach": 93,
            "Redway": 857,
            "Redwood City": 48,
            "Redwood Valley": 765,
            "Reedley": 962,
            "Rescue": 860,
            "Reseda": 214,
            "Rialto": 114,
            "Richgrove": 814,
            "Richmond": 73,
            "Richvale": 1090,
            "Ridgecrest": 375,
            "Rio Dell": 471,
            "Rio Linda": 491,
            "Rio Nido": 457,
            "Rio Oso": 654,
            "Rio Vista": 736,
            "Ripon": 1019,
            "River Pines": 1069,
            "Riverbank": 443,
            "Riverdale": 823,
            "Riverside": 12,
            "Rocklin": 158,
            "Rodeo": 602,
            "Rohnert Park": 831,
            "Rosamond": 576,
            "Rosemead": 177,
            "Roseville": 75,
            "Rough And Ready": 672,
            "Round Mountain": 527,
            "Rowland Heights": 176,
            "Running Springs": 337,
            "Sacramento": 4,
            "Saint Helena": 603,
            "Salida": 444,
            "Salinas": 32,
            "Salton City": 329,
            "Salyer": 472,
            "Samoa": 770,
            "San Andreas": 1006,
            "San Anselmo": 419,
            "San Ardo": 932,
            "San Bernardino": 16,
            "San Bruno": 400,
            "San Carlos": 974,
            "San Clemente": 154,
            "San Diego": 2,
            "San Dimas": 178,
            "San Fernando": 281,
            "San Francisco": 5,
            "San Gabriel": 109,
            "San Geronimo": 992,
            "San Gregorio": 975,
            "San Jacinto": 151,
            "San Joaquin": 385,
            "San Jose": 3,
            "San Juan Bautista": 613,
            "San Juan Capistrano": 901,
            "San Leandro": 67,
            "San Lorenzo": 408,
            "San Lucas": 590,
            "San Luis Obispo": 120,
            "San Marcos": 98,
            "San Marino": 261,
            "San Martin": 428,
            "San Mateo": 41,
            "San Miguel": 933,
            "San Pablo": 737,
            "San Pedro": 80,
            "San Quentin": 993,
            "San Rafael": 128,
            "San Ramon": 409,
            "San Simeon": 934,
            "San Ysidro": 250,
            "Sanger": 726,
            "Santa Ana": 26,
            "Santa Barbara": 19,
            "Santa Clara": 74,
            "Santa Clarita": 172,
            "Santa Cruz": 45,
            "Santa Fe Springs": 241,
            "Santa Margarita": 935,
            "Santa Maria": 79,
            "Santa Monica": 22,
            "Santa Paula": 561,
            "Santa Rosa": 27,
            "Santa Ynez": 936,
            "Santa Ysabel": 321,
            "Santee": 229,
            "Saratoga": 999,
            "Sausalito": 420,
            "Scotia": 1054,
            "Scott Bar": 1111,
            "Scotts Valley": 998,
            "Seal Beach": 207,
            "Seaside": 729,
            "Sebastopol": 1041,
            "Seeley": 197,
            "Seiad Valley": 528,
            "Selma": 386,
            "Sequoia National Park": 711,
            "Shafter": 364,
            "Shandon": 937,
            "Shasta": 529,
            "Shasta Lake": 871,
            "Shaver Lake": 727,
            "Sheep Ranch": 618,
            "Sheridan": 492,
            "Sherman Oaks": 96,
            "Shingle Springs": 1070,
            "Shingletown": 794,
            "Shoshone": 802,
            "Sierra City": 690,
            "Sierra Madre": 169,
            "Sierraville": 691,
            "Silverado": 701,
            "Simi Valley": 153,
            "Sloughhouse": 493,
            "Smartville": 1091,
            "Smith River": 473,
            "Snelling": 445,
            "Soda Springs": 498,
            "Solana Beach": 267,
            "Soledad": 967,
            "Solvang": 817,
            "Somerset": 1071,
            "Somes Bar": 474,
            "Somis": 707,
            "Sonoma": 766,
            "Sonora": 1020,
            "Soquel": 1000,
            "Soulsbyville": 625,
            "South Dos Palos": 387,
            "South El Monte": 283,
            "South Gate": 295,
            "South Lake Tahoe": 542,
            "South Pasadena": 208,
            "South San Francisco": 401,
            "Spreckels": 968,
            "Spring Valley": 106,
            "Springville": 918,
            "Squaw Valley": 389,
            "Standish": 1127,
            "Stanford": 976,
            "Stanton": 204,
            "Stevenson Ranch": 174,
            "Stevinson": 758,
            "Stinson Beach": 610,
            "Stirling City": 1092,
            "Stockton": 9,
            "Stonyford": 1093,
            "Stratford": 815,
            "Strathmore": 712,
            "Strawberry Valley": 510,
            "Studio City": 308,
            "Sugarloaf": 549,
            "Suisun City": 984,
            "Sultana": 963,
            "Summerland": 346,
            "Sun City": 61,
            "Sun Valley": 173,
            "Sunland": 209,
            "Sunnyvale": 66,
            "Sunol": 605,
            "Sunset Beach": 242,
            "Surfside": 301,
            "Susanville": 796,
            "Sutter": 673,
            "Sutter Creek": 861,
            "Sylmar": 215,
            "Taft": 564,
            "Tahoe City": 541,
            "Tahoe Vista": 693,
            "Tahoma": 540,
            "Tarzana": 244,
            "Taylorsville": 868,
            "Tecate": 320,
            "Tecopa": 338,
            "Tehachapi": 577,
            "Tehama": 1112,
            "Temecula": 77,
            "Temple City": 314,
            "Templeton": 571,
            "Termo": 797,
            "Terra Bella": 565,
            "The Sea Ranch": 635,
            "Thermal": 198,
            "Thornton": 655,
            "Thousand Oaks": 111,
            "Thousand Palms": 253,
            "Three Rivers": 919,
            "Tipton": 365,
            "Tollhouse": 388,
            "Tomales": 421,
            "Topanga": 256,
            "Topaz": 538,
            "Torrance": 23,
            "Trabuco Canyon": 557,
            "Tracy": 1021,
            "Tranquillity": 587,
            "Traver": 588,
            "Travis Afb": 597,
            "Trinidad": 475,
            "Trinity Center": 795,
            "Trona": 376,
            "Truckee": 543,
            "Tujunga": 170,
            "Tulare": 816,
            "Tulelake": 1128,
            "Tuolumne": 845,
            "Tupman": 920,
            "Turlock": 130,
            "Tustin": 147,
            "Twain": 511,
            "Twain Harte": 1022,
            "Twentynine Palms": 100,
            "Twin Bridges": 1075,
            "Ukiah": 458,
            "Union City": 410,
            "Upland": 112,
            "Upper Lake": 1042,
            "Vacaville": 150,
            "Valencia": 103,
            "Vallecito": 619,
            "Vallejo": 46,
            "Valley Center": 191,
            "Valley Ford": 422,
            "Valley Springs": 432,
            "Valley Village": 246,
            "Valyermo": 720,
            "Van Nuys": 28,
            "Venice": 257,
            "Ventura": 62,
            "Vernalis": 759,
            "Victorville": 115,
            "Vidal": 273,
            "Villa Park": 905,
            "Vina": 530,
            "Visalia": 63,
            "Vista": 99,
            "Volcano": 1072,
            "Wallace": 751,
            "Walnut": 221,
            "Walnut Creek": 68,
            "Walnut Grove": 778,
            "Warner Springs": 322,
            "Wasco": 713,
            "Washington": 1094,
            "Waterford": 626,
            "Watsonville": 839,
            "Weaverville": 685,
            "Weed": 1113,
            "Weimar": 661,
            "Weldon": 921,
            "Wendel": 881,
            "Weott": 1056,
            "West Covina": 54,
            "West Hills": 305,
            "West Hollywood": 276,
            "West Point": 433,
            "West Sacramento": 142,
            "Westlake Village": 218,
            "Westley": 446,
            "Westminster": 903,
            "Westmorland": 236,
            "Westport": 634,
            "Westwood": 692,
            "Wheatland": 494,
            "White Water": 254,
            "Whitethorn": 476,
            "Whitmore": 686,
            "Whittier": 14,
            "Wildomar": 897,
            "Williams": 788,
            "Willits": 1043,
            "Willow Creek": 1057,
            "Willows": 674,
            "Wilmington": 302,
            "Wilseyville": 1007,
            "Wilton": 862,
            "Winchester": 898,
            "Windsor": 1044,
            "Winnetka": 280,
            "Winterhaven": 274,
            "Winters": 495,
            "Winton": 760,
            "Wishon": 964,
            "Witter Springs": 459,
            "Wofford Heights": 366,
            "Woodacre": 833,
            "Woodbridge": 840,
            "Woodlake": 922,
            "Woodland": 144,
            "Woodland Hills": 108,
            "Woody": 714,
            "Wrightwood": 339,
            "Yermo": 803,
            "Yorba Linda": 119,
            "Yorkville": 853,
            "Yosemite National Park": 447,
            "Yountville": 985,
            "Yreka": 1114,
            "Yuba City": 136,
            "Yucaipa": 804,
            "Yucca Valley": 330,
            "Zenia": 771
        },
        "vocab_size": 1130
    },
    "Country": {
        "idx2str": [
            "<UNK>",
            "United States"
        ],
        "preprocessing": {
            "fill_value": "<UNK>",
            "lowercase": false,
            "missing_value_strategy": "fill_with_const",
            "most_common": 10000
        },
        "str2freq": {
            "<UNK>": 0,
            "United States": 7043
        },
        "str2idx": {
            "<UNK>": 0,
            "United States": 1
        },
        "vocab_size": 2
    },
    "InternetService": {
        "idx2str": [
            "<UNK>",
            "Fiber optic",
            "DSL",
            "No"
        ],
        "preprocessing": {
            "fill_value": "<UNK>",
            "lowercase": false,
            "missing_value_strategy": "fill_with_const",
            "most_common": 10000
        },
        "str2freq": {
            "<UNK>": 0,
            "DSL": 2421,
            "Fiber optic": 3096,
            "No": 1526
        },
        "str2idx": {
            "<UNK>": 0,
            "DSL": 2,
            "Fiber optic": 1,
            "No": 3
        },
        "vocab_size": 4
    },
    "PaymentMethod": {
        "idx2str": [
            "<UNK>",
            "Electronic check",
            "Mailed check",
            "Bank transfer (automatic)",
            "Credit card (automatic)"
        ],
        "preprocessing": {
            "fill_value": "<UNK>",
            "lowercase": false,
            "missing_value_strategy": "fill_with_const",
            "most_common": 10000
        },
        "str2freq": {
            "<UNK>": 0,
            "Bank transfer (automatic)": 1544,
            "Credit card (automatic)": 1522,
            "Electronic check": 2365,
            "Mailed check": 1612
        },
        "str2idx": {
            "<UNK>": 0,
            "Bank transfer (automatic)": 3,
            "Credit card (automatic)": 4,
            "Electronic check": 1,
            "Mailed check": 2
        },
        "vocab_size": 5
    },
    "PhoneService": {
        "preprocessing": {
            "fill_value": 0,
            "missing_value_strategy": "fill_with_const"
        }
    },
    "State": {
        "idx2str": [
            "<UNK>",
            "California"
        ],
        "preprocessing": {
            "fill_value": "<UNK>",
            "lowercase": false,
            "missing_value_strategy": "fill_with_const",
            "most_common": 10000
        },
        "str2freq": {
            "<UNK>": 0,
            "California": 7043
        },
        "str2idx": {
            "<UNK>": 0,
            "California": 1
        },
        "vocab_size": 2
    },
    "data_train_hdf5_fp": "train.hdf5"
}